<?xml version="1.0" standalone="no"?>
<!DOCTYPE svg PUBLIC "-//W3C//DTD SVG 1.1//EN" "http://www.w3.org/Graphics/SVG/1.1/DTD/svg11.dtd" >
<svg xmlns="http://www.w3.org/2000/svg">
<metadata>Generated by IcoMoon</metadata>
<defs>
<font id="icomoon" horiz-adv-x="1024">
<font-face units-per-em="1024" ascent="960" descent="-64" />
<missing-glyph horiz-adv-x="1024" />
<glyph unicode="&#x20;" horiz-adv-x="512" d="" />
<glyph unicode="&#xe900;" glyph-name="phone" horiz-adv-x="1022" d="M808.568 325.63c-18.065 19.977-43.821 32.708-72.561 33.492l-0.138 0.003c-29.42-0.64-55.743-13.381-74.285-33.426l-0.063-0.069-68.258-68.131-16.62 8.754c-7.739 3.806-15.098 7.486-21.442 11.419-68.85 45.233-127.57 98.949-176.714 160.633l-1.164 1.512c-22.141 26.727-41.609 56.993-57.216 89.465l-1.146 2.645c17.762 16.24 34.256 33.114 50.75 49.354 5.963 5.963 12.053 12.687 18.143 18.27 45.294 45.421 45.294 104.164 0 149.584l-59.504 58.616c-6.724 6.724-13.702 13.576-20.173 20.554-12.687 13.449-26.517 27.278-40.6 40.219-18.317 19.165-43.926 31.227-72.355 31.717l-0.090 0.001c-28.806-0.662-54.685-12.668-73.447-31.706l-0.013-0.013-73.841-74.094c-26.467-25.969-43.831-61.136-46.909-100.317l-0.035-0.548c-0.238-5.021-0.373-10.906-0.373-16.823 0-51.613 10.3-100.82 28.958-145.678l-0.926 2.513c41.229-106.063 96.952-197.423 165.922-276.987l-0.986 1.163c92.161-110.078 205.185-199.37 333.406-262.504l5.982-2.662c49.735-23.472 116.090-50.75 190.311-56.078 4.567 0 9.389 0 13.702 0 1.171-0.030 2.551-0.048 3.934-0.048 47.862 0 90.895 20.672 120.658 53.575l0.125 0.14s0 0 0.761 1.015c12.175 13.984 24.605 26.736 37.713 38.761l0.349 0.316c9.262 8.881 18.777 18.143 28.039 27.912 19.583 19.053 31.937 45.449 32.604 74.732l0.002 0.124c-0.612 29.298-13.257 55.527-33.176 74.035l-0.065 0.060zM885.961 98.145s0 0 0 0c-8.501-9.135-17.128-17.382-26.39-26.39-14.655-13.681-28.285-27.793-41.16-42.581l-0.582-0.683c-19.164-21.194-46.762-34.455-77.456-34.455-1.361 0-2.716 0.026-4.064 0.078l0.194-0.006c-3.172 0-6.597 0-9.896 0-64.198 4.060-123.829 29.181-168.616 50.75-126.152 62.072-232.374 146.227-317.723 248.418l-1.238 1.524c-64.107 73.658-116.652 159.512-153.49 253.26l-2.058 5.943c-20.046 53.668-27.532 95.663-24.233 135.121 1.742 25.28 12.719 47.705 29.544 64.181l73.731 73.731c8.302 8.871 19.846 14.619 32.733 15.346l0.128 0.006c12.553-0.809 23.649-6.451 31.561-15.064l0.031-0.034h0.634c12.687-12.687 25.375-25.375 38.823-38.697 6.724-6.978 13.702-13.829 20.554-20.934l58.996-58.996c22.964-22.964 22.964-44.152 0-66.989-6.217-6.344-12.687-12.687-18.524-18.65-18.143-18.524-35.525-35.905-54.302-52.653 0 0-0.888-0.761-1.015-1.142-8.911-8.087-14.484-19.714-14.484-32.642 0-5.931 1.173-11.587 3.299-16.751l-0.107 0.293 0.634-1.903c19.053-43.648 42.443-81.275 70.41-114.966l-0.629 0.78c54.251-68.485 117.82-126.565 189.436-173.355l3.032-1.858c7.177-4.526 15.863-9.342 24.808-13.71l1.709-0.753c7.739-3.933 15.098-7.612 21.442-11.419 0.707-0.487 1.536-0.992 2.394-1.452l0.144-0.070c6.214-3.347 13.582-5.354 21.41-5.455h0.032c13.088 0.502 24.715 6.361 32.821 15.434l0.039 0.045 73.841 73.841c8.177 9.146 19.663 15.186 32.56 16.229l0.174 0.011c12.522-0.797 23.522-6.716 31.029-15.664l0.056-0.068 119.515-119.515c22.203-22.076 22.203-44.787 0-67.624zM552.663 716.402c115.784-20.708 205.762-110.686 226.219-224.781l0.251-1.689c2.228-14.080 14.269-24.719 28.798-24.74h0.002c0.74-0.057 1.603-0.089 2.474-0.089s1.734 0.032 2.588 0.096l-0.114-0.007c14.245 2.090 25.058 14.226 25.058 28.888 0 2.034-0.208 4.020-0.604 5.937l0.033-0.189c-24.881 140.197-133.852 249.167-272.017 273.748l-2.031 0.3c-1.473 0.262-3.169 0.413-4.9 0.413-14.359 0-26.306-10.326-28.821-23.958l-0.028-0.18c-0.29-1.542-0.456-3.315-0.456-5.128 0-14.28 10.301-26.153 23.878-28.594l0.176-0.026zM1022.097 508.329c-40.958 230.922-220.319 410.454-447.805 451.173l-3.359 0.498c-1.43 0.248-3.077 0.39-4.758 0.39-16.122 0-29.191-13.069-29.191-29.191 0-14.441 10.487-26.433 24.261-28.776l0.172-0.024c206.194-36.84 366.374-197.278 402.387-400.604l0.438-2.982c2.281-13.821 14.142-24.234 28.436-24.234 0.083 0 0.167 0 0.25 0.001h-0.013c1.776 0 3.299 0 4.948 0 13.842 2.197 24.297 14.046 24.297 28.338 0 1.778-0.162 3.518-0.471 5.206l0.027-0.176z" />
<glyph unicode="&#xe901;" glyph-name="email" horiz-adv-x="1365" d="M1194.577 960h-1024c-94.166-0.102-170.476-76.411-170.577-170.568v-682.677c0-94.243 76.348-170.654 170.568-170.756h1024.010c94.306 0 170.756 76.45 170.756 170.756v682.667c-0.102 94.229-76.513 170.577-170.756 170.577v0zM913.795 504.532l361.16 309.718c2.782-7.33 4.58-15.805 4.994-24.643l0.007-0.185v-682.667c-0.526-6.179-1.729-11.885-3.545-17.31l0.151 0.521zM1194.577 874.622c5.959-0.579 11.417-1.714 16.643-3.37l-0.568 0.155-527.986-452.611-527.986 451.896c4.596 1.482 9.991 2.616 15.552 3.186l0.345 0.029zM89.308 89.966c-1.646 4.897-2.848 10.601-3.373 16.5l-0.021 0.29v682.667c0.421 9.022 2.219 17.497 5.19 25.399l-0.188-0.571 360.624-309.54zM171.113 21.378c-8.834 0.452-17.122 2.182-24.883 5.011l0.591-0.188 369.555 422.96 138.605-118.779c7.363-6.439 17.066-10.366 27.685-10.366s20.322 3.927 27.735 10.408l138.556 118.737 370.090-422.96c-7.226-2.658-15.578-4.39-24.273-4.815l-0.197-0.008z" />
<glyph unicode="&#xe902;" glyph-name="product" horiz-adv-x="1121" d="M940.434 768.158c6.773 2.429 13.313 5.138 19.712 8.128 93.796 43.722 139.666 140.133 141.581 144.104 1.317 2.733 2.087 5.942 2.087 9.332 0 10.033-6.744 18.49-15.946 21.087l-0.154 0.037c-4.344 1.168-107.435 28.027-201.418-15.835-48.206-22.468-83.426-57.968-106.548-87.723-9.032 32.134-20.287 59.966-34.16 86.2l1.135-2.354c-3.744 7.024-11.021 11.724-19.397 11.724-12.099 0-21.907-9.808-21.907-21.907 0-3.411 0.78-6.641 2.171-9.519l-0.057 0.131c15.819-29.181 28.126-63.023 35.13-98.765l0.371-2.271c-124.662-10.236-229.96-84.267-284.017-189.039l-0.92-1.963c-32.238 10.732-69.353 16.923-107.913 16.923-29.677 0-58.497-3.667-86.033-10.573l2.431 0.516c-9.645-2.422-16.674-11.017-16.674-21.254 0-12.085 9.797-21.882 21.882-21.882 1.849 0 3.644 0.229 5.359 0.661l-0.151-0.032c22.048 5.669 47.359 8.923 73.43 8.923 169.337 0 306.611-137.275 306.611-306.611s-137.275-306.611-306.611-306.611c-169.337 0-306.611 137.275-306.611 306.611 0 0.049 0 0.098 0 0.147v-0.008c-0.001 0.352-0.002 0.769-0.002 1.186 0 85.274 35.078 162.354 91.592 217.6l0.057 0.056c4.051 3.975 6.562 9.506 6.562 15.625 0 12.086-9.797 21.883-21.883 21.883-5.967 0-11.377-2.389-15.325-6.262l0.003 0.003c-64.811-63.623-104.98-152.155-104.98-250.070 0-193.484 156.849-350.333 350.333-350.333 135.76 0 253.485 77.222 311.644 190.137l0.919 1.964c32.355-10.89 69.615-17.174 108.342-17.174 193.484 0 350.333 156.849 350.333 350.333 0 131.411-72.353 245.922-179.395 305.872l-1.77 0.911zM904.607 895.352c51.989 24.196 109.351 22.375 142.842 18.217-18.264-28.26-53.624-73.29-105.801-97.626-20.349-9.458-43.966-16.149-68.785-18.83l-1.002-0.088c-18.85 5.909-41.045 10.486-63.895 12.859l-1.501 0.126c19.105 26.812 51.849 63.807 98.093 85.341zM770.733 154.981c-0.097 0-0.211 0-0.326 0-32.14 0-63.124 4.953-92.229 14.137l2.169-0.59c12.875 35.020 20.322 75.46 20.322 117.64 0 139.554-81.522 260.067-199.542 316.517l-2.113 0.91c52.039 97.824 152.954 163.512 269.298 164.469l0.131 0.001h2.289c1.125 0.015 2.454 0.023 3.784 0.023 169.311 0 306.565-137.254 306.565-306.565s-137.254-306.565-306.565-306.565c-1.33 0-2.659 0.008-3.985 0.025l0.201-0.002zM350.333 23.583c145.113 0 262.75 117.637 262.75 262.75s-117.637 262.75-262.75 262.75c-145.113 0-262.75-117.637-262.75-262.75v0c0.159-145.048 117.701-262.59 262.735-262.75h0.015zM180.865 424.831l110.191-110.145c-0.881-1.737-1.78-3.867-2.545-6.060l-0.117-0.386h-155.922c4.48 44.846 22.009 84.916 48.684 117.14l-0.291-0.362zM568.193 308.054h-155.922c-0.882 2.579-1.782 4.709-2.807 6.766l0.144-0.32 110.191 110.145c26.384-31.861 43.913-71.931 48.319-115.87l0.074-0.907zM519.801 147.695l-110.191 110.378c0.897 1.743 1.797 3.857 2.554 6.039l0.109 0.361h155.922c-4.489-44.845-22.016-84.913-48.685-117.141l0.292 0.363zM372.24 286.333c0-12.099-9.808-21.907-21.907-21.907s-21.907 9.808-21.907 21.907c0 12.099 9.808 21.907 21.907 21.907v0c12.099 0 21.907-9.808 21.907-21.907v0zM322.026 227.057c2.055-0.981 4.204-1.868 6.399-2.663v-155.922c-44.852 4.485-84.924 22.032-117.137 48.729l0.36-0.289zM372.24 224.394c2.195 0.794 4.344 1.682 6.399 2.663l110.191-110.145c-31.854-26.408-71.925-43.954-115.87-48.366l-0.908-0.074zM378.64 345.843c-2.055 0.981-4.204 1.868-6.399 2.663v155.735c44.852-4.485 84.924-22.032 117.137-48.729l-0.36 0.289zM328.426 348.085c-2.195-0.794-4.344-1.682-6.399-2.663l-110.191 110.378c31.854 26.408 71.925 43.954 115.87 48.366l0.908 0.074zM288.394 264.005c0.882-2.579 1.782-4.709 2.807-6.766l-0.144 0.32-110.191-109.678c-26.384 31.861-43.913 71.931-48.319 115.87l-0.074 0.907zM190.488 595.093c-12.099 0-21.907-9.808-21.907-21.907s9.808-21.907 21.907-21.907c12.099 0 21.907 9.808 21.907 21.907v0c0 12.099-9.808 21.907-21.907 21.907v0z" />
<glyph unicode="&#xe903;" glyph-name="service" horiz-adv-x="1040" d="M1015.139 481.625c-15.388 14.035-35.574 23.047-57.832 24.317l-0.249 0.011c-1.507 0.098-3.267 0.153-5.040 0.153-22.995 0-43.804-9.36-58.824-24.478l-0.004-0.004-115.599-114.37c-2.484 4.231-5.073 7.88-7.938 11.29l0.101-0.124c-13.825 16.074-34.187 26.19-56.912 26.19-0.573 0-1.145-0.006-1.715-0.019l0.085 0.002h-161.849c-0.274-0.001-0.599-0.001-0.923-0.001-31.128 0-61.251 4.301-89.808 12.342l2.329-0.56c-73.498 20.487-143.718 5.48-203.079-42.972-20.097-16.578-37.562-35.246-52.41-55.922l-0.6-0.879-29.041 28.17c-3.679 3.55-8.693 5.736-14.218 5.736-0.007 0-0.015 0-0.022 0h0.001c-5.751-0.069-10.929-2.468-14.643-6.295l-0.005-0.005-141.208-146.33c-3.548-3.678-5.733-8.691-5.733-14.215 0-5.828 2.434-11.088 6.34-14.819l0.008-0.008 238.573-227.152c3.654-3.501 8.615-5.663 14.081-5.685h0.004c0.006 0 0.012 0 0.019 0 5.755 0 10.955 2.373 14.676 6.193l0.004 0.004 139.723 143.41c3.638 3.695 5.884 8.77 5.884 14.369 0 5.802-2.412 11.040-6.287 14.768l-0.007 0.006-12.19 11.78 27.863 3.124c15.366 1.884 33.162 2.963 51.209 2.971h246.214c40.052 0 74.010 8.758 101.053 26.019l0.666 0.41c9.876 6.936 18.439 14.75 25.91 23.522l0.16 0.192 165.946 195.192c28.375 33.394 26.582 75.085-4.456 103.716zM258.497-14.78l-209.072 199.084 112.679 116.879 207.791-201.645zM988.506 404.388l-165.895-195.192c-5.286-6.168-11.187-11.565-17.678-16.187l-0.299-0.202c-20.487-12.804-46.762-19.36-78.671-19.36h-246.307c-0.036 0-0.078 0-0.121 0-19.54 0-38.807-1.172-57.733-3.45l2.282 0.224-61.462-6.863-128.045 124.408c14.052 20.618 30.239 38.367 48.594 53.593l0.421 0.34c49.323 40.257 105.304 52.14 166.305 35.238 29.542-8.391 63.471-13.215 98.527-13.215 0.312 0 0.624 0 0.935 0.001h161.801c29.041 0 36.826-25.199 36.826-40.052 0.005-0.243 0.007-0.529 0.007-0.815 0-10.47-3.611-20.096-9.655-27.702l0.070 0.091c-6.428-7.208-15.74-11.724-26.108-11.724-0.635 0-1.267 0.017-1.893 0.050l0.087-0.004h-140.849c-11.315 0-20.487-9.172-20.487-20.487s9.172-20.487 20.487-20.487v0h140.901c0.531-0.013 1.157-0.021 1.784-0.021 22.826 0 43.295 10.089 57.192 26.051l0.078 0.091c11.685 14.086 18.871 32.273 19.155 52.13l0.001 0.061 133.167 131.733c19.053 19.053 48.759 14.239 65.405-1.076 8.605-7.939 20.18-24.585 0.973-47.172zM505.879 268.558c-2.668 8.427-10.419 14.428-19.571 14.428-11.315 0-20.487-9.172-20.487-20.487 0-1.152 0.095-2.281 0.278-3.381l-0.016 0.119v-0.871c2.506-8.684 10.383-14.928 19.718-14.928 11.315 0 20.487 9.172 20.487 20.487 0 1.349-0.13 2.667-0.379 3.943l0.021-0.129zM138.288 528.489h199.238c0.032 0 0.070 0 0.108 0 10.902 0 20.973 3.555 29.118 9.57l-0.134-0.095c7.976-5.919 18.015-9.476 28.884-9.476 0.055 0 0.11 0 0.165 0h199.332c0.022 0 0.048 0 0.073 0 10.896 0 20.962 3.556 29.101 9.57l-0.134-0.094c7.993-5.92 18.048-9.475 28.934-9.475 0.038 0 0.075 0 0.113 0h199.334c27.32 0.058 49.447 22.204 49.477 49.525v92.912c0.001 0.138 0.001 0.301 0.001 0.464 0 41.367-23.431 77.261-57.745 95.135l-0.593 0.281c16.782 20.208 26.966 46.419 26.966 75.008 0 65.060-52.741 117.801-117.801 117.801s-117.801-52.741-117.801-117.801c0-28.589 10.184-54.799 27.122-75.201l-0.156 0.194c-15.269-7.931-27.948-18.89-37.639-32.168l-0.211-0.304c-9.921 13.582-22.616 24.541-37.308 32.191l-0.593 0.281c16.782 20.208 26.966 46.419 26.966 75.008 0 65.060-52.741 117.801-117.801 117.801s-117.801-52.741-117.801-117.801c0-28.589 10.184-54.799 27.122-75.201l-0.156 0.194c-15.269-7.931-27.948-18.89-37.639-32.168l-0.211-0.304c-9.921 13.582-22.616 24.541-37.308 32.191l-0.593 0.281c16.782 20.208 26.966 46.419 26.966 75.008 0 65.060-52.741 117.801-117.801 117.801s-117.801-52.741-117.801-117.801c0-28.589 10.184-54.799 27.122-75.201l-0.156 0.194c-34.907-18.155-58.338-54.050-58.338-95.416 0-0.163 0-0.326 0.001-0.489v0.025-92.909c0.029-27.36 22.215-49.528 49.579-49.528v0zM752.904 919.026c42.254-0.233 76.417-34.54 76.417-76.826 0-42.43-34.397-76.827-76.827-76.827s-76.826 34.396-76.827 76.826v0c0.204 42.474 34.682 76.827 77.185 76.827 0.018 0 0.037 0 0.055 0h-0.003zM699.637 736.741c15.453-8.007 33.735-12.703 53.113-12.703s37.66 4.695 53.769 13.011l-0.656-0.308c31.536-5.64 55.162-32.859 55.162-65.596 0-0.077 0-0.154 0-0.23v0.012-92.909c0 0 0 0 0 0 0-4.762-3.846-8.627-8.602-8.656h-199.343c-4.758 0.029-8.605 3.893-8.605 8.656 0 0 0 0 0 0v0 92.909c0 0.065 0 0.142 0 0.219 0 32.737 23.626 59.956 54.758 65.536l0.404 0.060zM495.329 919.026c42.32-0.146 76.571-34.486 76.571-76.826 0-42.43-34.397-76.827-76.827-76.827s-76.827 34.396-76.827 76.826v0c0.203 42.349 34.478 76.624 76.808 76.827h0.019zM442.216 736.741c15.453-8.007 33.735-12.703 53.113-12.703s37.66 4.695 53.769 13.011l-0.656-0.308c31.536-5.64 55.162-32.859 55.162-65.596 0-0.077 0-0.154 0-0.23v0.012-92.909c0 0 0 0 0 0 0-4.762-3.846-8.627-8.602-8.656h-199.343c-4.758 0.029-8.605 3.893-8.605 8.656 0 0 0 0 0 0v0 92.909c0 0.065 0 0.142 0 0.219 0 32.737 23.626 59.956 54.758 65.536l0.404 0.060zM237.907 919.026c42.32-0.146 76.571-34.486 76.571-76.826 0-42.43-34.397-76.827-76.827-76.827s-76.827 34.396-76.827 76.826v0c0.175 42.45 34.613 76.798 77.080 76.827h0.003zM129.633 670.926c0 0.068 0 0.148 0 0.228 0 32.719 23.6 59.926 54.706 65.527l0.405 0.060c15.461-8.008 33.751-12.703 53.139-12.703s37.678 4.696 53.796 13.011l-0.657-0.308c31.511-5.661 55.111-32.868 55.111-65.587 0-0.080 0-0.16 0-0.24v0.012-92.909c0 0 0 0 0 0 0-4.762-3.846-8.627-8.602-8.656h-199.241c-4.758 0.029-8.605 3.893-8.605 8.656 0 0 0 0 0 0v0z" />
<glyph unicode="&#xe904;" glyph-name="quality" horiz-adv-x="821" d="M140.105 595.805c0.601-0.085 1.295-0.134 2.001-0.134 7.577 0 13.842 5.617 14.859 12.915l0.009 0.079c17.542 125.768 124.388 221.525 253.599 221.525s236.057-95.757 253.444-220.178l0.154-1.348c1.029-7.37 7.276-12.986 14.841-13.018h0.003c0.303-0.019 0.656-0.030 1.012-0.030s0.71 0.011 1.060 0.032l-0.048-0.002c7.376 1.025 12.994 7.29 12.994 14.868 0 0.705-0.049 1.4-0.143 2.079l0.009-0.079c-19.073 140.974-138.643 248.497-283.327 248.497s-264.253-107.523-283.163-247.020l-0.164-1.476c-0.072-0.554-0.114-1.194-0.114-1.845 0-7.57 5.607-13.831 12.894-14.856l0.079-0.009zM694.256 538.85c0.045 0.437 0.071 0.945 0.071 1.458 0 8.286-6.717 15.003-15.003 15.003-7.498 0-13.711-5.5-14.825-12.686l-0.011-0.084c-16.068-127.292-123.66-224.752-254.016-224.752s-237.947 97.46-253.885 223.489l-0.13 1.263c-1.153 7.239-7.351 12.706-14.826 12.706-8.286 0-15.003-6.717-15.003-15.003 0-0.477 0.022-0.949 0.066-1.414l-0.004 0.060c17.393-142.694 137.806-252.148 283.783-252.148s266.39 109.454 283.646 250.77l0.137 1.378zM322.917 479.752c-10.666-0.023-19.306-8.663-19.329-19.327v-45.884c0.023-10.666 8.663-19.306 19.327-19.329h174.638c10.666 0.023 19.306 8.663 19.329 19.327v45.844c-0.023 10.666-8.663 19.306-19.327 19.329h-33.619v257.27c0 0 0 0 0 0 0 10.675-8.654 19.329-19.329 19.329-0.028 0-0.056 0-0.084 0h-50.68c-0.003 0-0.006 0-0.010 0-4.741 0-9.083-1.711-12.442-4.548l0.029 0.024-91.684-77.118c-4.247-3.563-6.928-8.872-6.928-14.808 0-4.51 1.548-8.659 4.141-11.944l-0.031 0.041 30.164-38.539c3.563-4.555 9.059-7.456 15.233-7.456 4.695 0 8.998 1.677 12.342 4.465l-0.031-0.025 20.917 17.344v-143.995zM384.238 663.913c-2.415 1.185-5.255 1.878-8.258 1.878-4.682 0-8.97-1.685-12.291-4.482l-29.937-24.782-17.027 21.829 81.007 67.989h36.038v-257.31c0-10.675 8.654-19.329 19.329-19.329v0h33.617v-24.528h-153.124v24.528h42.429c10.675 0 19.329 8.654 19.329 19.329v0 177.414c0 0.028 0 0.061 0 0.094 0 7.657-4.498 14.263-10.997 17.32l-0.117 0.049zM817.335 101.824l-135.144 211.23c29.538 6.245 51.386 32.097 51.386 63.053 0 4.188-0.4 8.282-1.163 12.246l0.065-0.404c-0.357 1.866-0.561 4.013-0.561 6.207 0 13.449 7.663 25.109 18.861 30.851l0.195 0.091c21.321 10.787 35.683 32.531 35.683 57.629 0 12.551-3.592 24.263-9.804 34.165l0.157-0.269c-3.174 5.13-5.055 11.35-5.055 18.010 0 8.991 3.428 17.18 9.048 23.334l-0.024-0.027c10.41 11.407 16.786 26.651 16.786 43.384 0 20.916-9.962 39.505-25.401 51.281l-0.157 0.115c-8.304 6.357-13.607 16.274-13.607 27.43 0 4.407 0.828 8.621 2.336 12.495l-0.080-0.235c2.81 6.968 4.44 15.049 4.44 23.51 0 29.35-19.616 54.118-46.453 61.909l-0.455 0.113c-14.528 4.267-24.963 17.46-25.005 33.097v0.005c-0.005 35.551-28.826 64.368-64.377 64.368-2.068 0-4.114-0.098-6.132-0.288l0.258 0.020c-0.919-0.087-1.987-0.136-3.067-0.136-14.563 0-27.026 8.995-32.135 21.733l-0.083 0.233c-9.595 24.282-32.861 41.148-60.067 41.148-10.45 0-20.32-2.489-29.047-6.905l0.368 0.169c-4.464-2.256-9.731-3.578-15.306-3.578-10.063 0-19.121 4.305-25.432 11.173l-0.023 0.025c-11.83 12.94-28.785 21.026-47.628 21.026s-35.798-8.086-47.583-20.977l-0.045-0.049c-6.336-6.918-15.41-11.239-25.492-11.239-5.608 0-10.903 1.337-15.585 3.709l0.197-0.091c-8.36 4.248-18.229 6.737-28.679 6.737-27.206 0-50.472-16.866-59.915-40.712l-0.152-0.436c-5.192-12.969-17.654-21.962-32.216-21.962-1.066 0-2.121 0.048-3.163 0.143l0.134-0.010c-1.784 0.176-3.857 0.276-5.954 0.276-35.562 0-64.393-28.817-64.417-64.373v-0.002c-0.036-15.631-10.453-28.82-24.721-33.039l-0.244-0.062c-27.226-7.915-46.788-32.637-46.788-61.928 0-8.377 1.6-16.381 4.512-23.722l-0.152 0.435c1.408-3.625 2.224-7.82 2.224-12.206 0-11.165-5.287-21.096-13.494-27.424l-0.081-0.060c-15.619-11.882-25.6-30.479-25.6-51.408 0-16.73 6.377-31.97 16.834-43.422l-0.045 0.050c5.602-6.122 9.034-14.312 9.034-23.302 0-6.663-1.885-12.885-5.15-18.163l0.085 0.148c-6.055-9.633-9.646-21.345-9.646-33.896 0-25.098 14.362-46.841 35.316-57.46l0.367-0.169c11.396-5.81 19.065-17.459 19.065-30.898 0-2.21-0.207-4.372-0.604-6.467l0.034 0.215c-0.739-3.662-1.163-7.871-1.163-12.179 0-30.921 21.8-56.751 50.869-62.958l0.422-0.075-134.946-211.23c-2.374-3.664-3.786-8.144-3.786-12.953 0-13.284 10.768-24.052 24.052-24.052 0.746 0 1.484 0.034 2.213 0.1l-0.094-0.007 131.89 11.589 44.651-124.626c3.030-8.571 10.593-14.807 19.734-15.866l0.111-0.010c0.41-0.028 0.888-0.044 1.369-0.044s0.96 0.016 1.434 0.048l-0.064-0.003c0.017 0 0.037 0 0.058 0 8.442 0 15.858 4.393 20.087 11.017l0.057 0.096 164.793 257.746 165.031-257.746c4.286-6.72 11.702-11.113 20.144-11.113 0.020 0 0.041 0 0.061 0h-0.003c0.41-0.028 0.888-0.044 1.369-0.044s0.96 0.016 1.434 0.048l-0.064-0.003c9.252 1.069 16.815 7.305 19.793 15.709l0.051 0.167 44.81 124.587 131.929-11.589c0.645-0.062 1.396-0.097 2.154-0.097 13.262 0 24.012 10.751 24.012 24.012 0 4.828-1.425 9.324-3.877 13.089l0.057-0.093zM35.721 95.831l131.771 206.11c4.653-4.706 7.951-10.761 9.253-17.527l0.034-0.214c2.578-13.376 8.982-24.959 18.013-33.889l0.006-0.006-93.946-148.718zM190.512 75.153l-5.676 15.876c-3.421 9.385-12.268 15.966-22.652 15.966-0.73 0-1.453-0.033-2.167-0.096l0.092 0.007-21.631-1.905 81.92 129.826c5.883-1.945 12.656-3.067 19.691-3.067 6.259 0 12.311 0.888 18.035 2.546l-0.457-0.113c2.803 0.816 6.023 1.285 9.353 1.285 7.674 0 14.766-2.492 20.511-6.711l-0.097 0.068zM227.106-26.533l-23.814 65.885 104.623 165.824c11.343-10.283 26.467-16.577 43.061-16.577 5.196 0 10.248 0.617 15.086 1.782l-0.438-0.089zM419.919 237.643c-0.878 0.227-1.886 0.357-2.924 0.357-0.005 0-0.009 0-0.014 0h0.001c-1.911 0.227-4.125 0.357-6.369 0.357-0.007 0-0.015 0-0.022 0h0.001c-2.266 0-4.501-0.13-6.698-0.382l0.269 0.025c-0.004 0-0.009 0-0.013 0-1.038 0-2.046-0.13-3.008-0.375l0.084 0.018c-11.236-1.628-21.233-5.971-29.607-12.339l0.157 0.114c-5.697-4.328-12.908-6.933-20.728-6.933-12.305 0-23.104 6.451-29.197 16.157l-0.084 0.144c-1.206 1.936-2.37 3.58-3.619 5.154l0.087-0.113c-0.174 0.284-0.358 0.531-0.56 0.76l0.005-0.005c-11.961 15.056-30.268 24.624-50.811 24.624-6.214 0-12.224-0.876-17.913-2.51l0.457 0.112c-2.817-0.83-6.054-1.308-9.402-1.308-16.78 0-30.759 11.997-33.825 27.882l-0.035 0.216c-4.056 20.542-17.378 37.314-35.336 46.030l-0.385 0.169c-0.816 0.489-1.759 0.932-2.749 1.277l-0.109 0.033c-5.524 2.419-11.928 4.108-18.64 4.743l-0.252 0.019c-17.586 1.681-31.23 16.379-31.23 34.264 0 2.242 0.214 4.433 0.624 6.555l-0.035-0.216c0.685 3.534 1.077 7.599 1.077 11.754 0 25.1-14.303 46.86-35.204 57.573l-0.364 0.17c-11.39 5.79-19.058 17.422-19.058 30.845 0 6.696 1.908 12.947 5.211 18.238l-0.085-0.145c6.024 9.637 9.596 21.342 9.596 33.882 0 16.729-6.357 31.972-16.787 43.447l0.047-0.053c-5.583 6.091-9.004 14.242-9.004 23.193 0 11.18 5.337 21.112 13.603 27.39l0.085 0.062c15.587 11.922 25.541 30.53 25.541 51.462 0 8.341-1.581 16.314-4.459 23.634l0.152-0.439c-1.475 3.693-2.33 7.974-2.33 12.454 0 15.687 10.485 28.925 24.829 33.089l0.243 0.061c27.156 8.007 46.656 32.671 46.755 61.905v0.011c0.009 19.020 15.43 34.435 34.451 34.435 1.104 0 2.196-0.052 3.273-0.153l-0.138 0.010c1.724-0.163 3.728-0.257 5.754-0.257 27.23 0 50.528 16.833 60.057 40.662l0.154 0.436c5.141 12.938 17.554 21.918 32.063 21.918 5.601 0 10.889-1.338 15.562-3.712l-0.196 0.090c8.31-4.16 18.105-6.596 28.468-6.596 18.832 0 35.787 8.042 47.616 20.879l0.041 0.045c6.31 6.916 15.361 11.238 25.421 11.238s19.111-4.322 25.397-11.211l0.024-0.027c11.889-12.944 28.894-21.027 47.786-21.027 10.452 0 20.326 2.474 29.069 6.869l-0.373-0.17c4.452 2.253 9.705 3.572 15.266 3.572 14.491 0 26.89-8.957 31.962-21.637l0.082-0.232c9.679-24.27 32.981-41.108 60.215-41.108 2.066 0 4.11 0.097 6.127 0.287l-0.258-0.020c0.94 0.091 2.032 0.143 3.136 0.143 19.021 0 34.442-15.415 34.451-34.434v-0.001c0.104-29.255 19.622-53.923 46.337-61.801l0.457-0.116c14.532-4.276 24.96-17.494 24.96-33.148 0-4.451-0.843-8.705-2.378-12.611l0.081 0.234c-2.709-6.862-4.28-14.81-4.28-23.125 0-20.973 9.992-39.612 25.476-51.416l0.158-0.115c8.351-6.339 13.688-16.272 13.688-27.451 0-8.951-3.421-17.102-9.028-23.218l0.023 0.026c-10.383-11.422-16.74-26.666-16.74-43.394 0-12.54 3.572-24.245 9.754-34.154l-0.159 0.273c3.224-5.149 5.136-11.405 5.136-18.108 0-13.473-7.725-25.142-18.988-30.819l-0.198-0.090c-21.321-10.864-35.67-32.653-35.67-57.794 0-4.123 0.386-8.157 1.124-12.065l-0.063 0.402c0.375-1.906 0.589-4.097 0.589-6.339 0-17.885-13.644-32.582-31.090-34.253l-0.139-0.011c-6.968-0.67-13.371-2.372-19.298-4.96l0.406 0.158c-1.091-0.34-2.037-0.771-2.916-1.303l0.059 0.033c-18.342-8.885-31.665-25.657-35.653-45.788l-0.068-0.411c-3.102-16.101-17.080-28.098-33.86-28.098-3.348 0-6.585 0.478-9.645 1.368l0.243-0.061c-5.233 1.525-11.244 2.402-17.46 2.402-20.55 0-38.861-9.588-50.704-24.534l-0.103-0.134c-0.202-0.202-0.384-0.422-0.545-0.659l-0.010-0.016c-1.23-1.627-2.461-3.334-3.532-5.080-6.178-9.849-16.976-16.3-29.282-16.3-7.82 0-15.031 2.605-20.813 6.995l0.085-0.062c-8.187 6.222-18.141 10.548-28.985 12.143l-0.346 0.042zM594.118-26.652l-138.637 216.866c4.403-1.086 9.464-1.721 14.669-1.746h0.016c4.216 0.009 8.331 0.413 12.319 1.177l-0.412-0.066c12.152 2.341 22.76 7.808 31.291 15.528l-0.055-0.049 104.504-165.864zM661.155 106.667c-0.625 0.058-1.352 0.091-2.086 0.091-10.392 0-19.246-6.579-22.627-15.799l-0.054-0.167-5.676-15.876-96.883 153.759c5.635 4.182 12.727 6.694 20.406 6.694 3.333 0 6.556-0.473 9.604-1.357l-0.243 0.060c5.268-1.544 11.319-2.432 17.578-2.432 7.035 0 13.807 1.122 20.148 3.197l-0.458-0.13 81.801-129.826zM720.293 101.467l-93.827 148.718c9.050 8.929 15.457 20.515 17.955 33.492l0.065 0.403c1.351 6.983 4.661 13.038 9.329 17.744l-0.002-0.002 131.731-206.11z" />
<glyph unicode="&#xe905;" glyph-name="rent" horiz-adv-x="1036" d="M691.999 378.622c24.567 0 44.53-17.286 44.53-38.517 0-11.181 9.064-20.245 20.245-20.245s20.245 9.064 20.245 20.245v0c0 37.061-27.62 68.251-64.775 76.706v10.522c0.015 0.291 0.023 0.632 0.023 0.975 0 11.181-9.064 20.245-20.245 20.245s-20.245-9.064-20.245-20.245c0-0.343 0.009-0.684 0.025-1.023l-0.002 0.048v-10.522c-37.155-8.455-64.775-39.645-64.775-76.706 0-43.59 38.142-79.008 84.973-79.008 24.567 0 44.53-17.286 44.53-38.517s-19.963-38.564-44.53-38.564-44.483 17.286-44.483 38.564c0 11.181-9.064 20.245-20.245 20.245s-20.245-9.064-20.245-20.245v0c0-37.108 27.62-68.298 64.775-76.753v-8.737c-0.015-0.291-0.023-0.632-0.023-0.975 0-11.181 9.064-20.245 20.245-20.245s20.245 9.064 20.245 20.245c0 0.343-0.009 0.684-0.025 1.023l0.002-0.048v8.737c37.155 8.455 64.775 39.645 64.775 76.753 0 43.543-38.142 79.008-85.020 79.008-24.52 0-44.483 17.286-44.483 38.517s19.963 38.517 44.483 38.517zM913.662 421.93c-26.557 41.022-63.050 73.536-106.153 94.62l-1.555 0.687c-2.561 1.259-5.575 1.996-8.76 1.996-11.168 0-20.221-9.053-20.221-20.221 0-7.982 4.625-14.884 11.342-18.173l0.119-0.053c75.367-36.776 126.371-112.84 126.371-200.816 0-38.246-9.639-74.24-26.621-105.687l0.583 1.181c-1.493-2.749-2.371-6.020-2.371-9.495 0-7.691 4.299-14.378 10.625-17.79l0.107-0.053c2.716-1.496 5.95-2.382 9.39-2.396h0.004c7.711 0.006 14.414 4.312 17.843 10.649l0.053 0.107c19.319 35.732 30.674 78.217 30.674 123.355 0 52.708-15.483 101.799-42.148 142.974l0.624-1.029zM722.484 502.629h1.268c11.181 0 20.245 9.064 20.245 20.245s-9.064 20.245-20.245 20.245h-1.362c-11.181 0-20.245-9.064-20.245-20.245s9.064-20.245 20.245-20.245v0zM595.799 79.266c-75.367 36.776-126.371 112.84-126.371 200.816 0 38.246 9.639 74.24 26.621 105.687l-0.583-1.181c1.067 2.383 1.688 5.165 1.688 8.092 0 11.181-9.064 20.245-20.245 20.245-7.219 0-13.555-3.778-17.139-9.465l-0.049-0.084c-19.368-35.743-30.752-78.253-30.752-123.421 0-103.923 60.266-193.771 147.755-236.501l1.555-0.686c2.551-1.272 5.557-2.018 8.736-2.020h0.001c11.168 0.018 20.214 9.075 20.214 20.245 0 7.974-4.611 14.872-11.311 18.172l-0.119 0.053zM661.748 57.424h-1.174c-11.181 0-20.245-9.064-20.245-20.245s9.064-20.245 20.245-20.245h1.362c11.181 0 20.245 9.064 20.245 20.245s-9.064 20.245-20.245 20.245v0zM784.018 611.558c-2.681 6.34-5.685 11.776-9.177 16.85l0.205-0.316h52.703c51.417 0 93.099 41.682 93.099 93.099s-41.682 93.099-93.099 93.099v0h-162.055c10.223 14.725 16.332 32.977 16.332 52.656 0 51.391-41.661 93.052-93.052 93.052-0.028 0-0.056 0-0.083 0h-495.79c-51.417 0-93.099-41.682-93.099-93.099s41.682-93.099 93.099-93.099v0h162.055c-10.233-14.706-16.349-32.943-16.349-52.609s6.116-37.904 16.55-52.914l-0.201 0.305h-52.797c-0.038 0-0.084 0-0.129 0-51.366 0-93.006-41.64-93.006-93.006 0-29.484 13.719-55.763 35.123-72.803l0.189-0.145c-21.537-17.159-35.22-43.385-35.22-72.807s13.683-55.648 35.032-72.663l0.188-0.145c-21.537-17.159-35.22-43.385-35.22-72.807s13.683-55.648 35.032-72.663l0.188-0.145c-21.592-17.185-35.312-43.464-35.312-72.948 0-51.366 41.64-93.006 93.006-93.006 0.045 0 0.091 0 0.136 0h238.519c62.967-67.426 152.392-109.454 251.634-109.454 189.975 0 343.979 154.005 343.979 343.979 0 157.411-105.734 290.127-250.055 331l-2.424 0.587zM40.49 866.901c0.027 29.044 23.565 52.582 52.607 52.609h495.797c29.055 0 52.609-23.554 52.609-52.609s-23.554-52.609-52.609-52.609v0h-495.794c-29.044 0.027-52.582 23.565-52.609 52.607v0.003zM279.251 721.286c0.053 29.050 23.602 52.582 52.654 52.609h495.797c29.055 0 52.609-23.554 52.609-52.609s-23.554-52.609-52.609-52.609v0h-495.794c-29.021 0.027-52.549 23.505-52.656 52.505v0.010zM149.748 575.671c0.027 29.044 23.565 52.582 52.607 52.609h495.844c8.34-0.002 16.225-1.943 23.231-5.398l-0.308 0.137q-14.092 1.174-29.029 1.221c-0.004 0-0.010 0-0.015 0-95.152 0-181.252-38.757-243.375-101.345l-0.021-0.021h-246.324c-29.034 0.053-52.556 23.575-52.609 52.604v0.005zM149.748 430.057c0.027 29.044 23.565 52.582 52.607 52.609h211.708c-22.193-30.059-39.949-65.049-51.368-102.792l-0.631-2.426h-159.706c-28.935 0.052-52.396 23.415-52.609 52.307v0.020zM149.748 284.442c0.027 29.044 23.565 52.582 52.607 52.609h150.315c-2.989-16.997-4.697-36.568-4.697-56.539 0-17.174 1.264-34.052 3.703-50.548l-0.227 1.868h-149.091c-28.903 0.052-52.344 23.361-52.609 52.208v0.025zM202.357 86.124c-29.055 0-52.609 23.554-52.609 52.609s23.554 52.609 52.609 52.609h157.452c10.941-40.045 27.57-75.088 49.265-106.35l-0.743 1.131zM692.092-23.134c-167.557 0.107-303.348 135.964-303.348 303.536 0 167.638 135.898 303.536 303.536 303.536s303.536-135.898 303.536-303.536c0-0.132 0-0.264 0-0.396v0.020c-0.214-167.618-136.091-303.429-303.714-303.536h-0.010z" />
<glyph unicode="&#xe906;" glyph-name="search" d="M999.461 79.193l-244.524 245.679c-3.703 3.674-8.804 5.945-14.435 5.945s-10.731-2.271-14.436-5.946l-9.815-9.815-23.384 22.807c50.001 64.496 80.154 146.566 80.154 235.678 0 213.492-173.070 386.562-386.562 386.562s-386.562-173.070-386.562-386.562c0-213.492 173.070-386.562 386.562-386.562 89.112 0 171.182 30.153 236.562 80.813l-0.884-0.659 23.962-23.962-9.816-9.816c-3.674-3.703-5.945-8.804-5.945-14.435s2.271-10.731 5.946-14.436l244.523-244.523c14.834-13.432 34.605-21.652 56.295-21.652 46.398 0 84.010 37.613 84.010 84.010 0 21.691-8.22 41.462-21.716 56.367l0.064-0.072zM601.062 358.938c-55.975-64.984-138.364-105.876-230.303-105.876-167.573 0-303.418 135.845-303.418 303.418 0 91.939 40.892 174.328 105.48 229.97l0.396 0.333c55.975 64.984 138.364 105.876 230.303 105.876 167.573 0 303.418-135.845 303.418-303.418 0-91.939-40.892-174.328-105.48-229.97l-0.396-0.333z" />
<glyph unicode="&#xe907;" glyph-name="fb" horiz-adv-x="531" d="M345.619 779.69c14.657 13.653 34.382 22.033 56.065 22.033 2.463 0 4.901-0.108 7.309-0.32l-0.312 0.022c33.937-0.135 66.699-4.932 97.752-13.784l-2.546 0.621 27.245 146.329c-47.414 16.228-102.040 25.597-158.855 25.597-4.853 0-9.691-0.068-14.511-0.204l0.71 0.016c-4.594 0.266-9.967 0.418-15.376 0.418-47.021 0-91.363-11.473-130.378-31.773l1.568 0.742c-34.394-16.86-61.306-44.563-76.734-78.582l-0.411-1.012c-14.115-37.788-22.284-81.451-22.284-127.022 0-7.115 0.199-14.183 0.592-21.199l-0.044 0.974v-57.858h-115.41v-167.452h115.41v-525.010c44.373-10.319 95.323-16.234 147.656-16.234 1.256 0 2.511 0.003 3.766 0.010l-0.194-0.001c2.927-0.088 6.37-0.139 9.825-0.139 17.377 0 34.457 1.275 51.15 3.735l-1.892-0.229v537.868h153.064v167.452h-153.064v54.185c-0.672 4.621-1.055 9.956-1.055 15.381 0 24.549 7.852 47.264 21.182 65.77l-0.229-0.334z" />
<glyph unicode="&#xe908;" glyph-name="tw" horiz-adv-x="1249" d="M0 49.067c12.366-0.967 26.777-1.519 41.317-1.519 82.338 0 160.545 17.682 231.033 49.457l-3.55-1.431c41.074 17.708 76.496 39.308 108.384 65.103l-0.864-0.676c-40.762 0.977-78.937 11.114-112.843 28.421l1.483-0.687c-56.628 29.027-100.029 77.131-122.3 135.652l-0.58 1.735c-5.547 13.653-5.547 13.653 9.813 12.8 10.099-1.758 21.729-2.762 33.593-2.762 21.665 0 42.547 3.35 62.157 9.56l-1.456-0.398c-22.977 5.675-43.157 13.724-61.857 24.114l1.27-0.648c-80.647 42.377-135.593 123.999-139.503 218.792l-0.017 0.515c0 11.52 2.56 12.8 12.8 7.68 29.405-15.151 63.823-25.106 100.277-27.685l0.843-0.048c-16.64 14.933-30.72 26.88-42.667 39.68-41.818 46.53-67.392 108.391-67.392 176.226 0 42.241 9.917 82.166 27.549 117.574l-0.691-1.533c6.4 12.373 8.533 12.373 17.493 2.56 111.571-131.679 267.425-222.814 444.328-250.355l4.098-0.525c18.347-3.413 38.4-3.84 57.173-7.253s14.080 3.84 12.373 13.653c-2.608 13.721-4.1 29.503-4.1 45.634 0 95.913 52.746 179.506 130.813 223.355l1.287 0.665c36.278 20.915 79.785 33.253 126.174 33.253 68.806 0 131.272-27.145 177.273-71.31l-0.087 0.083c5.081-5.011 12.064-8.106 19.769-8.106 2.996 0 5.882 0.468 8.59 1.334l-0.199-0.055c51.617 11.825 97.191 30.049 138.921 54.18l-2.388-1.274c4.152 1.61 7.702 3.926 10.672 6.832l-0.006-0.006c-18.949-60.182-57.757-109.506-108.589-141.456l-1.064-0.624c51.618 6.284 98.603 19.19 142.469 37.979l-3.375-1.286c0-6.4-3.84-10.24-6.4-14.933-30.41-42.1-65.775-78.142-105.818-108.307l-1.275-0.92c-5.819-4.147-9.568-10.871-9.568-18.471 0-1.009 0.066-2.002 0.194-2.976l-0.012 0.114c0.147-5.536 0.23-12.054 0.23-18.591 0-185.154-67.048-354.648-178.189-485.526l0.892 1.077c-106.726-126.841-256.296-214.62-426.172-240.994l-3.908-0.499c-37.547-6.818-80.762-10.717-124.887-10.717-143.392 0-277.167 41.173-390.148 112.341l3.035-1.784c-1.768 1.468-3.934 2.52-6.312 2.973l-0.088 0.014z" />
<glyph unicode="&#xe909;" glyph-name="insta" horiz-adv-x="1025" d="M890.101 960h-754.006c-89.632 0-136.094-47.194-136.094-136.826v-752.543c0-86.705 47.56-134.997 131.704-134.997h758.397c3.884-0.438 8.386-0.688 12.947-0.688 67.485 0 122.192 54.707 122.192 122.192 0 5.142-0.318 10.21-0.934 15.185l0.060-0.595v754.006c0 87.071-46.828 134.265-134.265 134.265zM807.054 844.393c101.339 0 101.339 0 101.339-101.705s0-99.51-99.876-99.51-100.607 0-100.607 100.607 0 100.607 99.144 100.607zM514.378 646.837c108.877-0.834 196.816-89.289 196.816-198.282 0-109.511-88.777-198.288-198.288-198.288s-198.288 88.777-198.288 198.288c0 0.641 0.003 1.282 0.009 1.922l-0.001-0.098c3.37 107.501 89.956 193.704 197.296 196.453l0.26 0.005zM908.393 113.801c0-47.56-13.17-61.462-60.73-61.462h-669.862c-46.828 0-60.364 13.902-60.364 61.462 0 123.29 0 248.775 0 373.528 0 34.755 9.512 43.17 42.072 41.706 46.828-3.293 47.926 0 42.438-47.194-1.13-10.033-1.774-21.664-1.774-33.445 0-150.965 105.832-277.211 247.351-308.595l2.101-0.391c18.305-3.729 39.344-5.863 60.883-5.863 142.77 0 263.635 93.786 304.349 223.11l0.614 2.26c7.906 26.269 12.456 56.455 12.456 87.705 0 20.736-2.004 41.005-5.828 60.622l0.323-1.988c-3.293 17.926 0 21.219 16.829 21.219 70.608 5.122 70.608 6.585 70.608-66.584z" />
<glyph unicode="&#xe90a;" glyph-name="in" horiz-adv-x="1026" d="M1027.646-63.669h-207.187c-7.624 0-8.95 2.652-8.95 9.282 0 119.008 0 237.685 0 356.693 0.074 2.149 0.116 4.674 0.116 7.21 0 30.002-5.887 58.629-16.569 84.789l0.541-1.499c-12.555 31.455-41.904 53.678-76.673 55.681l-0.235 0.011c-5.471 0.721-11.797 1.132-18.219 1.132-19.584 0-38.274-3.825-55.365-10.768l0.985 0.354c-25.211-10.095-44.711-29.92-54.147-54.707l-0.218-0.653c-9.906-22.887-15.741-49.525-15.912-77.506v-0.065q0-179.341 0-359.345c0-12.265 0-10.608-10.939-10.608h-194.258c-7.293 0-8.95 2.32-8.95 9.282v665.318c0 9.613 0 9.613 9.282 9.613h186.302c8.95 0 9.282 0 9.282-8.95v-77.239c0-2.652 0-4.972 0-9.282 6.961 9.613 11.934 17.901 17.901 25.525 17.791 23.073 39.893 41.893 65.216 55.492l1.083 0.532c32.498 18.336 71.266 29.336 112.561 29.833l0.148 0.001c4.505 0.223 9.782 0.35 15.090 0.35 37.434 0 73.392-6.319 106.867-17.947l-2.285 0.691c42.634-15.178 77.181-44.249 98.976-81.663l0.474-0.881c17.072-29.64 29.317-64.303 34.624-101.208l0.184-1.557c3.542-19.97 6.038-43.609 6.933-67.658l0.028-0.962c0-69.615 0-139.561 1.657-209.507s0-139.893 0-210.17zM16.906-63.669v674.932c0 9.282 0 9.282 9.613 9.282h193.595c9.945 0 9.945 0 9.945-9.945v-664.655c0-9.613 0-9.613-9.282-9.613h-203.872zM0 836.019c0 68.473 55.508 123.981 123.981 123.981s123.981-55.508 123.981-123.981v0c0.011-0.597 0.016-1.3 0.016-2.005 0-67.374-54.617-121.992-121.992-121.992-0.705 0-1.409 0.006-2.111 0.018l0.106-0.001c-0.496-0.007-1.082-0.011-1.669-0.011-67.557 0-122.323 54.766-122.323 122.323 0 0.587 0.004 1.173 0.012 1.757l-0.001-0.089z" />
<glyph unicode="&#xe90b;" glyph-name="whats" d="M490.014 960h62.042l20.179-2.409c92.38-9.126 175.573-42.313 245.051-93.136l-1.4 0.976c104.422-74.133 177.846-186.038 200.461-315.413l0.424-2.931c3.313-18.071 5.12-36.744 7.831-55.115v-62.042l-1.807-8.433c-5.421-30.118-8.433-62.946-16.866-93.365-61.805-212.955-255.121-365.982-484.18-365.982-84.784 0-164.671 20.965-234.759 57.995l2.741-1.321c-4.007 2.305-8.81 3.665-13.932 3.665-3.316 0-6.5-0.57-9.457-1.618l0.198 0.061-210.824-67.162c-17.468-5.421-34.936-11.746-52.405-17.769l-3.313 2.108 3.915 9.035c27.407 81.016 54.513 162.033 82.522 242.748 1.242 3.174 1.962 6.849 1.962 10.692 0 5.978-1.741 11.548-4.745 16.233l0.072-0.12c-34.98 59.28-57.861 129.59-63.453 204.714l-0.095 1.592c-1.221 12.685-1.918 27.425-1.918 42.328 0 67.355 14.228 131.387 39.842 189.254l-1.181-2.989c65.276 156.7 204.532 270.911 372.936 299.856l2.932 0.417c18.974 3.915 38.249 5.421 57.224 8.132zM126.494 59.482l152.395 48.791c2.165 0.85 4.672 1.343 7.295 1.343 4.242 0 8.182-1.289 11.451-3.498l-0.073 0.046c62.764-40.312 139.372-64.263 221.574-64.263 20.324 0 40.305 1.464 59.845 4.292l-2.229-0.265c110.183 13.557 205.316 69.073 270.447 149.805l0.612 0.784c60.088 70.237 96.656 162.154 96.656 262.612 0 19.764-1.415 39.198-4.15 58.205l0.256-2.173c-13.189 110.288-68.803 205.537-149.786 270.438l-0.802 0.621c-71.041 59.585-163.454 95.779-264.32 95.779-0.675 0-1.35-0.002-2.024-0.005h0.104c-0.609 0.003-1.329 0.005-2.049 0.005-75.584 0-146.441-20.234-207.451-55.582l1.99 1.064c-69.046-38.555-124.703-93.729-162.752-160.268l-1.088-2.066c-33.833-58.117-53.804-127.913-53.804-202.373 0-25.663 2.372-50.773 6.91-75.12l-0.39 2.519c11.101-64.071 35.541-120.974 70.425-169.919l-0.853 1.26c1.532-2.545 2.438-5.617 2.438-8.901 0-1.656-0.23-3.257-0.661-4.775l0.030 0.123c-7.529-23.492-15.661-46.682-23.492-69.873s-17.167-51.501-26.504-78.607zM368.941 688.941c20.781 5.722 30.118-8.734 37.647-28.009 10.24-26.504 21.082-52.706 33.129-78.005 2.604-4.771 4.135-10.45 4.135-16.486 0-8.672-3.16-16.606-8.391-22.714l0.040 0.047c-7.529-10.24-15.962-19.878-24.094-30.118s-10.24-16.264-2.409-30.118c35.993-60.264 88.729-107.279 151.779-135.29l2.123-0.842c28.612-12.348 28.612-12.649 48.489 11.144 9.336 11.144 18.372 22.889 27.407 34.334s14.155 12.649 26.202 7.228c34.334-15.661 68.668-32.226 102.701-48.489 5.313-2.404 8.943-7.659 8.943-13.761 0-0.884-0.076-1.75-0.222-2.592l0.013 0.090c-1.506-51.2-16.866-76.499-71.981-99.991-14.252-6.148-30.846-9.724-48.274-9.724-15.091 0-29.556 2.681-42.944 7.593l0.865-0.278c-60.494 16.281-113.471 41.171-160.769 73.72l1.747-1.137c-44.408 34.456-82.498 74.173-114.191 118.753l-1.159 1.717c-22.651 27.633-41.372 59.627-54.626 94.323l-0.79 2.355c-5.904 14.927-9.327 32.219-9.327 50.31 0 39.275 16.132 74.781 42.132 100.255l0.024 0.023c14.155 12.649 22.588 15.661 51.802 15.661z" />
</font></defs></svg>